{"employees":[
    { "title":"Robinson Crusoe", "author":"Daniel Defoe", "cover":"1.jpg", "location":"robinsoncrusoe.epub" },
    { "title":"The Call of the Wild", "author":"Jack London", "cover":"2.jpg", "location":"thecallofthewild.epub" },
    { "title":"Black Beauty", "author":"Anna Sewell", "cover":"3.jpg", "location":"blackbeauty.epub" }
]}